Google Capstone Project
…
We will add a new row ride_length, calculated using the difference of ended_at and start_at. This gives us the trip duration for a record.

all_bike_m1 <- mutate(
  
  # add new ride_length column by subtracting started_at from ended_at
  all_bike, ride_length = ended_at - started_at,
  
  # add new day_of_week column to show the day of the week
  day_of_week = weekdays.POSIXt(started_at)
  )

# print ride_length and day_of_week columns
select(all_bike_m1, ride_length, day_of_week)

## # A tibble: 5,757,551 x 2
##    ride_length day_of_week
##    <drtn>      <chr>      
##  1  744 secs   Sunday     
##  2 2695 secs   Sunday     
##  3   72 secs   Sunday     
##  4  913 secs   Sunday     
##  5  413 secs   Sunday     
##  6 1416 secs   Sunday     
##  7  883 secs   Sunday     
##  8 1075 secs   Wednesday  
##  9  157 secs   Wednesday  
## 10 1581 secs   Tuesday    
## # ... with 5,757,541 more rows
…
